#! /c/Source/iverilog-install/bin/vvp
:ivl_version "12.0 (devel)" "(s20150603-1539-g2693dd32b)";
:ivl_delay_selection "TYPICAL";
:vpi_time_precision + 0;
:vpi_module "C:\iverilog\lib\ivl\system.vpi";
:vpi_module "C:\iverilog\lib\ivl\vhdl_sys.vpi";
:vpi_module "C:\iverilog\lib\ivl\vhdl_textio.vpi";
:vpi_module "C:\iverilog\lib\ivl\v2005_math.vpi";
:vpi_module "C:\iverilog\lib\ivl\va_math.vpi";
S_00000165ea7d59d0 .scope module, "FP_Adder_tb" "FP_Adder_tb" 2 1;
 .timescale 0 0;
v00000165ea65b980_0 .var "tb_op1", 31 0;
v00000165ea65ba20_0 .var "tb_op2", 31 0;
v00000165ea65bac0_0 .net "tb_sum", 31 0, v00000165ea65b8e0_0;  1 drivers
S_00000165ea7d5b60 .scope module, "fadder" "FP_Adder" 2 12, 3 1 0, S_00000165ea7d59d0;
 .timescale 0 0;
    .port_info 0 /INPUT 32 "op1";
    .port_info 1 /INPUT 32 "op2";
    .port_info 2 /OUTPUT 32 "sum";
v00000165ea65eef0_0 .net "op1", 31 0, v00000165ea65b980_0;  1 drivers
v00000165ea6567e0_0 .net "op2", 31 0, v00000165ea65ba20_0;  1 drivers
v00000165ea65b8e0_0 .var "sum", 31 0;
E_00000165ea65c6c0 .event anyedge, v00000165ea6567e0_0, v00000165ea65eef0_0;
    .scope S_00000165ea7d5b60;
T_0 ;
    %wait E_00000165ea65c6c0;
    %load/vec4 v00000165ea65eef0_0;
    %load/vec4 v00000165ea6567e0_0;
    %add;
    %store/vec4 v00000165ea65b8e0_0, 0, 32;
    %jmp T_0;
    .thread T_0, $push;
    .scope S_00000165ea7d59d0;
T_1 ;
    %pushi/vec4 0, 0, 32;
    %store/vec4 v00000165ea65b980_0, 0, 32;
    %pushi/vec4 9, 0, 32;
    %store/vec4 v00000165ea65ba20_0, 0, 32;
    %end;
    .thread T_1;
# The file index is used to find the file name in the following table.
:file_names 4;
    "N/A";
    "<interactive>";
    ".\adder\FP_Adder_tb.v";
    ".\adder\FP_Adder.v";
